{
    "page": 1,
    "per_page": 5,
    "total": 12,
    "total_pages": 4,
    "data": [
        {
            "id": 1,
            "first_name": "Shashank",
            "last_name": "Kumar",
            "avatar": "./assets/images/shashank_01.jfif"
        },
        {
            "id": 2,
            "first_name": "Ashish",
            "last_name": "Jaiswal",
            "avatar": "./assets/images/ashish_j_01.jpg"
        },
        {
            "id": 3,
            "first_name": "Akash",
            "last_name": "Sahu",
            "avatar": "./assets/images/akash_01.jpg"
        },
        {
            "id": 4,
            "first_name": "Vishal",
            "last_name": "Jaiswal",
            "avatar": "./assets/images/vishal_01.jpg"
        },
        {
            "id": 5,
            "first_name": "Ashish",
            "last_name": "Gorai",
            "avatar": "./assets/images/ashish_g_01.jpg"
        }
    ]
}